{
  "title": "AWS System Monitoring",
  "description": "Dashboard for monitoring AWS resources.",
  "widgets": [
    {
      "definition": {
        "type": "timeseries",
        "requests": [
          {
            "q": "avg:aws.ec2.cpuutilization{*}",
            "display_type": "line"
          }
        ],
        "title": "EC2 Average CPU Utilization"
      }
    },
    {
      "definition": {
        "type": "timeseries",
        "requests": [
          {
            "q": "avg:aws.rds.cpuutilization{*}",
            "display_type": "line"
          }
        ],
        "title": "RDS CPU Utilization"
      }
    }
  ]
}
